(footprint "Conn_1x04_p2mm_w3.5mm" (version 20221018) (generator pcbnew)
  (layer "F.Cu")
  (attr smd)
  (fp_text reference "REF**" (at -0.05 -2.05 unlocked) (layer "F.SilkS")
      (effects (font (size 1 1) (thickness 0.15)))
    (tstamp 98e9a7dd-d3dd-40f7-be7a-af873eb191e5)
  )
  (fp_text value "Conn_1x04_p2mm_w3.5mm" (at 0 7.95 unlocked) (layer "F.Fab")
      (effects (font (size 1 1) (thickness 0.15)))
    (tstamp 1a8a07e0-0a94-4bc6-86f1-3b7082153769)
  )
  (fp_text user "${REFERENCE}" (at 0 9.75 unlocked) (layer "F.Fab")
      (effects (font (size 1 1) (thickness 0.15)))
    (tstamp dbbd6016-ba90-4747-8c54-0104e003380f)
  )
  (fp_line (start -2 -1.05) (end 1.75 -1.05)
    (stroke (width 0.12) (type default)) (layer "F.SilkS") (tstamp fff46b6d-7d87-4f74-a4e7-849e9f2f8159))
  (fp_line (start -2 0.8) (end -2 -1.05)
    (stroke (width 0.12) (type default)) (layer "F.SilkS") (tstamp 9a43182c-6873-49e5-afe9-811820c455eb))
  (pad "1" smd roundrect (at 0 0) (size 3.5 1.6) (layers "F.Cu" "F.Paste" "F.Mask") (roundrect_rratio 0.1)
    (thermal_bridge_angle 45) (tstamp a1eb11f5-e490-4749-84af-3d3046a20a79))
  (pad "2" smd roundrect (at 0 2) (size 3.5 1.6) (layers "F.Cu" "F.Paste" "F.Mask") (roundrect_rratio 0.1)
    (thermal_bridge_angle 45) (tstamp cf8d73d0-a380-43de-8b82-642a961e25dc))
  (pad "3" smd roundrect (at 0 4) (size 3.5 1.6) (layers "F.Cu" "F.Paste" "F.Mask") (roundrect_rratio 0.1)
    (thermal_bridge_angle 45) (tstamp d350aa00-4cc1-47ea-9118-29de26449ca4))
  (pad "4" smd roundrect (at 0 6) (size 3.5 1.6) (layers "F.Cu" "F.Paste" "F.Mask") (roundrect_rratio 0.1)
    (thermal_bridge_angle 45) (tstamp 9b39ce18-d284-4e0c-b0f1-2a9a7bbae36d))
)
