(kicad_sch (version 20210621) (generator eeschema)

  (uuid 9c45ba0d-3b68-4299-ab7b-d9f9ec9edf50)

  (paper "A4")

  (lib_symbols
    (symbol "Device:R" (pin_numbers hide) (pin_names (offset 0)) (in_bom yes) (on_board yes)
      (property "Reference" "R" (id 0) (at 2.032 0 90)
        (effects (font (size 1.27 1.27)))
      )
      (property "Value" "R" (id 1) (at 0 0 90)
        (effects (font (size 1.27 1.27)))
      )
      (property "Footprint" "" (id 2) (at -1.778 0 90)
        (effects (font (size 1.27 1.27)) hide)
      )
      (property "Datasheet" "~" (id 3) (at 0 0 0)
        (effects (font (size 1.27 1.27)) hide)
      )
      (property "ki_keywords" "R res resistor" (id 4) (at 0 0 0)
        (effects (font (size 1.27 1.27)) hide)
      )
      (property "ki_description" "Resistor" (id 5) (at 0 0 0)
        (effects (font (size 1.27 1.27)) hide)
      )
      (property "ki_fp_filters" "R_*" (id 6) (at 0 0 0)
        (effects (font (size 1.27 1.27)) hide)
      )
      (symbol "R_0_1"
        (rectangle (start -1.016 -2.54) (end 1.016 2.54)
          (stroke (width 0.254)) (fill (type none))
        )
      )
      (symbol "R_1_1"
        (pin passive line (at 0 3.81 270) (length 1.27)
          (name "~" (effects (font (size 1.27 1.27))))
          (number "1" (effects (font (size 1.27 1.27))))
        )
        (pin passive line (at 0 -3.81 90) (length 1.27)
          (name "~" (effects (font (size 1.27 1.27))))
          (number "2" (effects (font (size 1.27 1.27))))
        )
      )
    )
    (symbol "Mechanical:Heatsink" (pin_names (offset 1.016)) (in_bom yes) (on_board yes)
      (property "Reference" "HS" (id 0) (at 0 5.08 0)
        (effects (font (size 1.27 1.27)))
      )
      (property "Value" "Heatsink" (id 1) (at 0 -1.27 0)
        (effects (font (size 1.27 1.27)))
      )
      (property "Footprint" "" (id 2) (at 0.3048 0 0)
        (effects (font (size 1.27 1.27)) hide)
      )
      (property "Datasheet" "~" (id 3) (at 0.3048 0 0)
        (effects (font (size 1.27 1.27)) hide)
      )
      (property "ki_keywords" "thermal heat temperature" (id 4) (at 0 0 0)
        (effects (font (size 1.27 1.27)) hide)
      )
      (property "ki_description" "Heatsink" (id 5) (at 0 0 0)
        (effects (font (size 1.27 1.27)) hide)
      )
      (property "ki_fp_filters" "Heatsink_*" (id 6) (at 0 0 0)
        (effects (font (size 1.27 1.27)) hide)
      )
      (symbol "Heatsink_0_1"
        (polyline
          (pts
            (xy -0.3302 1.27)
            (xy -0.9652 1.27)
            (xy -0.9652 3.81)
            (xy -1.6002 3.81)
            (xy -1.6002 1.27)
            (xy -2.2352 1.27)
            (xy -2.2352 3.81)
            (xy -2.8702 3.81)
            (xy -2.8702 0)
            (xy -0.9652 0)
          )
          (stroke (width 0.254)) (fill (type background))
        )
        (polyline
          (pts
            (xy -0.3302 1.27)
            (xy -0.3302 3.81)
            (xy 0.3048 3.81)
            (xy 0.3048 1.27)
            (xy 0.9398 1.27)
            (xy 0.9398 3.81)
            (xy 1.5748 3.81)
            (xy 1.5748 1.27)
            (xy 2.2098 1.27)
            (xy 2.2098 3.81)
            (xy 2.8448 3.81)
            (xy 2.8448 0)
            (xy -0.9652 0)
          )
          (stroke (width 0.254)) (fill (type background))
        )
      )
    )
    (symbol "Transistor_BJT:TIP120" (pin_names (offset 0) hide) (in_bom yes) (on_board yes)
      (property "Reference" "Q" (id 0) (at 5.08 1.905 0)
        (effects (font (size 1.27 1.27)) (justify left))
      )
      (property "Value" "TIP120" (id 1) (at 5.08 0 0)
        (effects (font (size 1.27 1.27)) (justify left))
      )
      (property "Footprint" "Package_TO_SOT_THT:TO-220-3_Vertical" (id 2) (at 5.08 -1.905 0)
        (effects (font (size 1.27 1.27) italic) (justify left) hide)
      )
      (property "Datasheet" "https://www.onsemi.com/pub/Collateral/TIP120-D.PDF" (id 3) (at 0 0 0)
        (effects (font (size 1.27 1.27)) (justify left) hide)
      )
      (property "ki_keywords" "Darlington Power NPN Transistor" (id 4) (at 0 0 0)
        (effects (font (size 1.27 1.27)) hide)
      )
      (property "ki_description" "5A Ic, 60V Vce, Silicon Darlington Power NPN Transistor, TO-220" (id 5) (at 0 0 0)
        (effects (font (size 1.27 1.27)) hide)
      )
      (property "ki_fp_filters" "TO?220*" (id 6) (at 0 0 0)
        (effects (font (size 1.27 1.27)) hide)
      )
      (symbol "TIP120_0_1"
        (circle (center -0.762 0) (radius 0.127) (stroke (width 0)) (fill (type none)))
        (circle (center 0.762 -2.032) (radius 0.127) (stroke (width 0)) (fill (type none)))
        (circle (center 0.762 -0.254) (radius 0.127) (stroke (width 0)) (fill (type none)))
        (circle (center 1.27 0) (radius 3.175) (stroke (width 0.3556)) (fill (type none)))
        (circle (center 2.54 -2.032) (radius 0.127) (stroke (width 0)) (fill (type none)))
        (circle (center 2.54 -1.524) (radius 0.127) (stroke (width 0)) (fill (type none)))
        (circle (center 2.54 1.016) (radius 0.127) (stroke (width 0)) (fill (type none)))
        (circle (center 2.54 2.286) (radius 0.127) (stroke (width 0)) (fill (type none)))
        (polyline
          (pts
            (xy -1.27 0)
            (xy -0.889 0)
          )
          (stroke (width 0)) (fill (type none))
        )
        (polyline
          (pts
            (xy 2.54 -2.032)
            (xy 2.54 -2.54)
          )
          (stroke (width 0)) (fill (type none))
        )
        (polyline
          (pts
            (xy 2.54 -1.524)
            (xy 3.175 -1.524)
          )
          (stroke (width 0)) (fill (type none))
        )
        (polyline
          (pts
            (xy 2.794 0.127)
            (xy 3.556 0.127)
          )
          (stroke (width 0)) (fill (type none))
        )
        (polyline
          (pts
            (xy 3.175 -0.635)
            (xy 3.175 -1.524)
          )
          (stroke (width 0)) (fill (type none))
        )
        (polyline
          (pts
            (xy 3.175 1.016)
            (xy 2.54 1.016)
          )
          (stroke (width 0)) (fill (type none))
        )
        (polyline
          (pts
            (xy 3.175 1.016)
            (xy 3.175 0.127)
          )
          (stroke (width 0)) (fill (type none))
        )
        (polyline
          (pts
            (xy -0.254 0.762)
            (xy 0.762 -0.254)
            (xy 1.27 -0.254)
          )
          (stroke (width 0)) (fill (type none))
        )
        (polyline
          (pts
            (xy -0.254 1.016)
            (xy -0.762 1.016)
            (xy -0.762 -2.032)
          )
          (stroke (width 0)) (fill (type none))
        )
        (polyline
          (pts
            (xy -0.254 1.27)
            (xy 0.762 2.286)
            (xy 2.54 2.286)
          )
          (stroke (width 0)) (fill (type none))
        )
        (polyline
          (pts
            (xy -0.254 2.032)
            (xy -0.254 0)
            (xy -0.254 0)
          )
          (stroke (width 0.3048)) (fill (type none))
        )
        (polyline
          (pts
            (xy 1.27 0.762)
            (xy 1.27 -1.27)
            (xy 1.27 -1.27)
          )
          (stroke (width 0.381)) (fill (type none))
        )
        (polyline
          (pts
            (xy 0.635 -0.127)
            (xy 0.381 0.381)
            (xy 0.127 0.127)
            (xy 0.635 -0.127)
          )
          (stroke (width 0)) (fill (type none))
        )
        (polyline
          (pts
            (xy 1.27 -0.508)
            (xy 2.286 -1.524)
            (xy 2.54 -1.524)
            (xy 2.54 -2.032)
          )
          (stroke (width 0)) (fill (type none))
        )
        (polyline
          (pts
            (xy 1.27 0)
            (xy 2.286 1.016)
            (xy 2.54 1.016)
            (xy 2.54 2.286)
          )
          (stroke (width 0)) (fill (type none))
        )
        (polyline
          (pts
            (xy 2.159 -1.397)
            (xy 1.905 -0.889)
            (xy 1.651 -1.143)
            (xy 2.159 -1.397)
          )
          (stroke (width 0)) (fill (type none))
        )
        (polyline
          (pts
            (xy 0.762 -2.032)
            (xy 0.381 -2.032)
            (xy 0.254 -2.286)
            (xy 0.127 -1.778)
            (xy 0 -2.286)
            (xy -0.127 -1.778)
            (xy -0.254 -2.286)
            (xy -0.381 -1.778)
            (xy -0.508 -2.032)
            (xy -0.762 -2.032)
          )
          (stroke (width 0)) (fill (type none))
        )
        (polyline
          (pts
            (xy 0.762 -0.254)
            (xy 0.762 -2.032)
            (xy 1.143 -2.032)
            (xy 1.27 -1.778)
            (xy 1.397 -2.286)
            (xy 1.524 -1.778)
            (xy 1.651 -2.286)
            (xy 1.778 -1.778)
            (xy 1.905 -2.286)
            (xy 2.032 -2.032)
            (xy 2.54 -2.032)
          )
          (stroke (width 0)) (fill (type none))
        )
        (polyline
          (pts
            (xy 3.175 0.127)
            (xy 2.794 -0.635)
            (xy 3.556 -0.635)
            (xy 3.175 0.127)
          )
          (stroke (width 0)) (fill (type outline))
        )
      )
      (symbol "TIP120_1_1"
        (pin input line (at -5.08 0 0) (length 3.81)
          (name "B" (effects (font (size 1.27 1.27))))
          (number "1" (effects (font (size 1.27 1.27))))
        )
        (pin passive line (at 2.54 5.08 270) (length 2.667)
          (name "C" (effects (font (size 1.27 1.27))))
          (number "2" (effects (font (size 1.27 1.27))))
        )
        (pin passive line (at 2.54 -5.08 90) (length 2.54)
          (name "E" (effects (font (size 1.27 1.27))))
          (number "3" (effects (font (size 1.27 1.27))))
        )
      )
    )
    (symbol "Wizzard.USB:USB-A_Plug_4pin" (in_bom yes) (on_board yes)
      (property "Reference" "USB" (id 0) (at 2.54 7.62 0)
        (effects (font (size 1.27 1.27)))
      )
      (property "Value" "USB-A_Plug_4pin" (id 1) (at 8.89 -7.62 0)
        (effects (font (size 1.27 1.27)))
      )
      (property "Footprint" "Wizzard.USB:USB-A_on_PCB" (id 2) (at 0 0 0)
        (effects (font (size 1.27 1.27)) hide)
      )
      (property "Datasheet" "" (id 3) (at 0 0 0)
        (effects (font (size 1.27 1.27)) hide)
      )
      (symbol "USB-A_Plug_4pin_0_1"
        (rectangle (start -6.35 6.35) (end 6.35 -6.35)
          (stroke (width 0.1524)) (fill (type background))
        )
      )
      (symbol "USB-A_Plug_4pin_1_1"
        (pin power_out line (at 0 8.89 270) (length 2.54)
          (name "V_{CC}" (effects (font (size 1.27 1.27))))
          (number "1" (effects (font (size 1.27 1.27))))
        )
        (pin bidirectional line (at -8.89 1.27 0) (length 2.54)
          (name "Data-" (effects (font (size 1.27 1.27))))
          (number "2" (effects (font (size 1.27 1.27))))
        )
        (pin bidirectional line (at -8.89 -1.27 0) (length 2.54)
          (name "Data+" (effects (font (size 1.27 1.27))))
          (number "3" (effects (font (size 1.27 1.27))))
        )
        (pin power_out line (at 0 -8.89 90) (length 2.54)
          (name "GND" (effects (font (size 1.27 1.27))))
          (number "4" (effects (font (size 1.27 1.27))))
        )
      )
    )
    (symbol "Wizzard.USB:USB_C_Plug_12Pin" (in_bom yes) (on_board yes)
      (property "Reference" "USB" (id 0) (at 5.08 8.89 0)
        (effects (font (size 1.27 1.27)))
      )
      (property "Value" "USB_C_Plug_12Pin" (id 1) (at 0 -21.59 0)
        (effects (font (size 1.27 1.27)))
      )
      (property "Footprint" "Wizzard.USB:USB-C_12pin" (id 2) (at 0 0 0)
        (effects (font (size 1.27 1.27)) hide)
      )
      (property "Datasheet" "" (id 3) (at 0 0 0)
        (effects (font (size 1.27 1.27)) hide)
      )
      (symbol "USB_C_Plug_12Pin_0_1"
        (rectangle (start -7.62 7.62) (end 7.62 -7.62)
          (stroke (width 0.1524)) (fill (type background))
        )
      )
      (symbol "USB_C_Plug_12Pin_1_1"
        (pin power_out line (at 0 -12.7 90) (length 5.08) hide
          (name "GND" (effects (font (size 1.27 1.27))))
          (number "A12B1" (effects (font (size 1.27 1.27))))
        )
        (pin power_out line (at 0 -12.7 90) (length 5.08)
          (name "GND" (effects (font (size 1.27 1.27))))
          (number "A1B12" (effects (font (size 1.27 1.27))))
        )
        (pin power_out line (at 0 12.7 270) (length 5.08)
          (name "V_{BUS}" (effects (font (size 1.27 1.27))))
          (number "A4B9" (effects (font (size 1.27 1.27))))
        )
        (pin bidirectional line (at 10.16 -2.54 180) (length 2.54)
          (name "CC1" (effects (font (size 1.27 1.27))))
          (number "A5" (effects (font (size 1.27 1.27))))
        )
        (pin bidirectional line (at 10.16 5.08 180) (length 2.54)
          (name "D+" (effects (font (size 1.27 1.27))))
          (number "A6" (effects (font (size 1.27 1.27))))
        )
        (pin bidirectional line (at 10.16 2.54 180) (length 2.54)
          (name "D-" (effects (font (size 1.27 1.27))))
          (number "A7" (effects (font (size 1.27 1.27))))
        )
        (pin bidirectional line (at 10.16 -5.08 180) (length 2.54)
          (name "SBU1" (effects (font (size 1.27 1.27))))
          (number "A8" (effects (font (size 1.27 1.27))))
        )
        (pin power_out line (at 0 12.7 270) (length 5.08) hide
          (name "V_{BUS}" (effects (font (size 1.27 1.27))))
          (number "A9B4" (effects (font (size 1.27 1.27))))
        )
        (pin bidirectional line (at -10.16 -2.54 0) (length 2.54)
          (name "CC2" (effects (font (size 1.27 1.27))))
          (number "B5" (effects (font (size 1.27 1.27))))
        )
        (pin bidirectional line (at -10.16 5.08 0) (length 2.54)
          (name "D+" (effects (font (size 1.27 1.27))))
          (number "B6" (effects (font (size 1.27 1.27))))
        )
        (pin bidirectional line (at -10.16 2.54 0) (length 2.54)
          (name "D-" (effects (font (size 1.27 1.27))))
          (number "B7" (effects (font (size 1.27 1.27))))
        )
        (pin bidirectional line (at -10.16 -5.08 0) (length 2.54)
          (name "SBU2" (effects (font (size 1.27 1.27))))
          (number "B8" (effects (font (size 1.27 1.27))))
        )
      )
    )
    (symbol "Wizzard.USB:USB_C_Plug_24Pin" (in_bom yes) (on_board yes)
      (property "Reference" "USB" (id 0) (at 5.08 15.24 0)
        (effects (font (size 1.27 1.27)))
      )
      (property "Value" "USB_C_Plug_24Pin" (id 1) (at 0 -21.59 0)
        (effects (font (size 1.27 1.27)))
      )
      (property "Footprint" "" (id 2) (at 0 0 0)
        (effects (font (size 1.27 1.27)) hide)
      )
      (property "Datasheet" "" (id 3) (at 0 0 0)
        (effects (font (size 1.27 1.27)) hide)
      )
      (symbol "USB_C_Plug_24Pin_0_1"
        (rectangle (start -7.62 13.97) (end 7.62 -13.97)
          (stroke (width 0.1524)) (fill (type background))
        )
      )
      (symbol "USB_C_Plug_24Pin_1_1"
        (pin power_out line (at 0 -16.51 90) (length 2.54)
          (name "GND" (effects (font (size 1.27 1.27))))
          (number "A1" (effects (font (size 1.27 1.27))))
        )
        (pin output line (at 10.16 2.54 180) (length 2.54)
          (name "RX1-" (effects (font (size 1.27 1.27))))
          (number "A10" (effects (font (size 1.27 1.27))))
        )
        (pin output line (at 10.16 5.08 180) (length 2.54)
          (name "RX1+" (effects (font (size 1.27 1.27))))
          (number "A11" (effects (font (size 1.27 1.27))))
        )
        (pin power_out line (at 0 -16.51 90) (length 2.54) hide
          (name "GND" (effects (font (size 1.27 1.27))))
          (number "A12" (effects (font (size 1.27 1.27))))
        )
        (pin input line (at 10.16 12.7 180) (length 2.54)
          (name "TX1+" (effects (font (size 1.27 1.27))))
          (number "A2" (effects (font (size 1.27 1.27))))
        )
        (pin input line (at 10.16 10.16 180) (length 2.54)
          (name "TX1-" (effects (font (size 1.27 1.27))))
          (number "A3" (effects (font (size 1.27 1.27))))
        )
        (pin power_out line (at 0 16.51 270) (length 2.54)
          (name "V_{BUS}" (effects (font (size 1.27 1.27))))
          (number "A4" (effects (font (size 1.27 1.27))))
        )
        (pin bidirectional line (at 10.16 -10.16 180) (length 2.54)
          (name "CC1" (effects (font (size 1.27 1.27))))
          (number "A5" (effects (font (size 1.27 1.27))))
        )
        (pin bidirectional line (at 10.16 -2.54 180) (length 2.54)
          (name "D+" (effects (font (size 1.27 1.27))))
          (number "A6" (effects (font (size 1.27 1.27))))
        )
        (pin bidirectional line (at 10.16 -5.08 180) (length 2.54)
          (name "D-" (effects (font (size 1.27 1.27))))
          (number "A7" (effects (font (size 1.27 1.27))))
        )
        (pin bidirectional line (at 10.16 -12.7 180) (length 2.54)
          (name "SBU1" (effects (font (size 1.27 1.27))))
          (number "A8" (effects (font (size 1.27 1.27))))
        )
        (pin power_out line (at 0 16.51 270) (length 2.54) hide
          (name "V_{BUS}" (effects (font (size 1.27 1.27))))
          (number "A9" (effects (font (size 1.27 1.27))))
        )
        (pin power_out line (at 0 -16.51 90) (length 2.54) hide
          (name "GND" (effects (font (size 1.27 1.27))))
          (number "B1" (effects (font (size 1.27 1.27))))
        )
        (pin output line (at -10.16 2.54 0) (length 2.54)
          (name "RX2-" (effects (font (size 1.27 1.27))))
          (number "B10" (effects (font (size 1.27 1.27))))
        )
        (pin output line (at -10.16 5.08 0) (length 2.54)
          (name "RX2+" (effects (font (size 1.27 1.27))))
          (number "B11" (effects (font (size 1.27 1.27))))
        )
        (pin power_out line (at 0 -16.51 90) (length 2.54) hide
          (name "GND" (effects (font (size 1.27 1.27))))
          (number "B12" (effects (font (size 1.27 1.27))))
        )
        (pin input line (at -10.16 12.7 0) (length 2.54)
          (name "TX2+" (effects (font (size 1.27 1.27))))
          (number "B2" (effects (font (size 1.27 1.27))))
        )
        (pin input line (at -10.16 10.16 0) (length 2.54)
          (name "TX2-" (effects (font (size 1.27 1.27))))
          (number "B3" (effects (font (size 1.27 1.27))))
        )
        (pin power_out line (at 0 16.51 270) (length 2.54) hide
          (name "V_{BUS}" (effects (font (size 1.27 1.27))))
          (number "B4" (effects (font (size 1.27 1.27))))
        )
        (pin bidirectional line (at -10.16 -10.16 0) (length 2.54)
          (name "CC2" (effects (font (size 1.27 1.27))))
          (number "B5" (effects (font (size 1.27 1.27))))
        )
        (pin bidirectional line (at -10.16 -2.54 0) (length 2.54)
          (name "D+" (effects (font (size 1.27 1.27))))
          (number "B6" (effects (font (size 1.27 1.27))))
        )
        (pin bidirectional line (at -10.16 -5.08 0) (length 2.54)
          (name "D-" (effects (font (size 1.27 1.27))))
          (number "B7" (effects (font (size 1.27 1.27))))
        )
        (pin bidirectional line (at -10.16 -12.7 0) (length 2.54)
          (name "SBU2" (effects (font (size 1.27 1.27))))
          (number "B8" (effects (font (size 1.27 1.27))))
        )
        (pin power_out line (at 0 16.51 270) (length 2.54) hide
          (name "V_{BUS}" (effects (font (size 1.27 1.27))))
          (number "B9" (effects (font (size 1.27 1.27))))
        )
      )
    )
    (symbol "Wizzard.USB:USB_C_Plug_6Pin_Power" (in_bom yes) (on_board yes)
      (property "Reference" "USB" (id 0) (at 5.08 7.62 0)
        (effects (font (size 1.27 1.27)))
      )
      (property "Value" "USB_C_Plug_6Pin_Power" (id 1) (at 0 -13.97 0)
        (effects (font (size 1.27 1.27)))
      )
      (property "Footprint" "" (id 2) (at 0 0 0)
        (effects (font (size 1.27 1.27)) hide)
      )
      (property "Datasheet" "" (id 3) (at 0 0 0)
        (effects (font (size 1.27 1.27)) hide)
      )
      (symbol "USB_C_Plug_6Pin_Power_0_1"
        (rectangle (start -7.62 6.35) (end 8.89 -6.35)
          (stroke (width 0.1524)) (fill (type background))
        )
      )
      (symbol "USB_C_Plug_6Pin_Power_1_1"
        (pin power_out line (at 0 -8.89 90) (length 2.54)
          (name "GND" (effects (font (size 1.27 1.27))))
          (number "A1" (effects (font (size 1.27 1.27))))
        )
        (pin power_out line (at 0 -8.89 90) (length 2.54) hide
          (name "GND" (effects (font (size 1.27 1.27))))
          (number "A12" (effects (font (size 1.27 1.27))))
        )
        (pin power_out line (at 0 8.89 270) (length 2.54)
          (name "V_{BUS}" (effects (font (size 1.27 1.27))))
          (number "A4" (effects (font (size 1.27 1.27))))
        )
        (pin bidirectional line (at 11.43 0 180) (length 2.54)
          (name "CC1" (effects (font (size 1.27 1.27))))
          (number "A5" (effects (font (size 1.27 1.27))))
        )
        (pin power_out line (at 0 8.89 270) (length 2.54) hide
          (name "V_{BUS}" (effects (font (size 1.27 1.27))))
          (number "A9" (effects (font (size 1.27 1.27))))
        )
        (pin power_out line (at 0 -8.89 90) (length 2.54) hide
          (name "GND" (effects (font (size 1.27 1.27))))
          (number "B1" (effects (font (size 1.27 1.27))))
        )
        (pin power_out line (at 0 -8.89 90) (length 2.54) hide
          (name "GND" (effects (font (size 1.27 1.27))))
          (number "B12" (effects (font (size 1.27 1.27))))
        )
        (pin power_out line (at 0 8.89 270) (length 2.54) hide
          (name "V_{BUS}" (effects (font (size 1.27 1.27))))
          (number "B4" (effects (font (size 1.27 1.27))))
        )
        (pin bidirectional line (at -10.16 0 0) (length 2.54)
          (name "CC2" (effects (font (size 1.27 1.27))))
          (number "B5" (effects (font (size 1.27 1.27))))
        )
        (pin power_out line (at 0 8.89 270) (length 2.54) hide
          (name "V_{BUS}" (effects (font (size 1.27 1.27))))
          (number "B9" (effects (font (size 1.27 1.27))))
        )
      )
    )
    (symbol "power:+5V" (power) (pin_names (offset 0)) (in_bom yes) (on_board yes)
      (property "Reference" "#PWR" (id 0) (at 0 -3.81 0)
        (effects (font (size 1.27 1.27)) hide)
      )
      (property "Value" "+5V" (id 1) (at 0 3.556 0)
        (effects (font (size 1.27 1.27)))
      )
      (property "Footprint" "" (id 2) (at 0 0 0)
        (effects (font (size 1.27 1.27)) hide)
      )
      (property "Datasheet" "" (id 3) (at 0 0 0)
        (effects (font (size 1.27 1.27)) hide)
      )
      (property "ki_keywords" "power-flag" (id 4) (at 0 0 0)
        (effects (font (size 1.27 1.27)) hide)
      )
      (property "ki_description" "Power symbol creates a global label with name \"+5V\"" (id 5) (at 0 0 0)
        (effects (font (size 1.27 1.27)) hide)
      )
      (symbol "+5V_0_1"
        (polyline
          (pts
            (xy -0.762 1.27)
            (xy 0 2.54)
          )
          (stroke (width 0)) (fill (type none))
        )
        (polyline
          (pts
            (xy 0 0)
            (xy 0 2.54)
          )
          (stroke (width 0)) (fill (type none))
        )
        (polyline
          (pts
            (xy 0 2.54)
            (xy 0.762 1.27)
          )
          (stroke (width 0)) (fill (type none))
        )
      )
      (symbol "+5V_1_1"
        (pin power_in line (at 0 0 90) (length 0) hide
          (name "+5V" (effects (font (size 1.27 1.27))))
          (number "1" (effects (font (size 1.27 1.27))))
        )
      )
    )
    (symbol "power:GND" (power) (pin_names (offset 0)) (in_bom yes) (on_board yes)
      (property "Reference" "#PWR" (id 0) (at 0 -6.35 0)
        (effects (font (size 1.27 1.27)) hide)
      )
      (property "Value" "GND" (id 1) (at 0 -3.81 0)
        (effects (font (size 1.27 1.27)))
      )
      (property "Footprint" "" (id 2) (at 0 0 0)
        (effects (font (size 1.27 1.27)) hide)
      )
      (property "Datasheet" "" (id 3) (at 0 0 0)
        (effects (font (size 1.27 1.27)) hide)
      )
      (property "ki_keywords" "power-flag" (id 4) (at 0 0 0)
        (effects (font (size 1.27 1.27)) hide)
      )
      (property "ki_description" "Power symbol creates a global label with name \"GND\" , ground" (id 5) (at 0 0 0)
        (effects (font (size 1.27 1.27)) hide)
      )
      (symbol "GND_0_1"
        (polyline
          (pts
            (xy 0 0)
            (xy 0 -1.27)
            (xy 1.27 -1.27)
            (xy 0 -2.54)
            (xy -1.27 -1.27)
            (xy 0 -1.27)
          )
          (stroke (width 0)) (fill (type none))
        )
      )
      (symbol "GND_1_1"
        (pin power_in line (at 0 0 270) (length 0) hide
          (name "GND" (effects (font (size 1.27 1.27))))
          (number "1" (effects (font (size 1.27 1.27))))
        )
      )
    )
  )

  (junction (at 93.98 128.27) (diameter 0) (color 0 0 0 0))
  (junction (at 170.18 113.03) (diameter 0) (color 0 0 0 0))

  (no_connect (at 83.82 119.38) (uuid 5595213d-7e6c-4f54-8716-a3d34989f5ea))
  (no_connect (at 104.14 119.38) (uuid 5595213d-7e6c-4f54-8716-a3d34989f5ea))
  (no_connect (at 130.81 80.01) (uuid 32b3c0a3-1654-4919-a198-68c403421bc0))

  (wire (pts (xy 76.2 116.84) (xy 76.2 128.27))
    (stroke (width 0) (type default) (color 0 0 0 0))
    (uuid 8bb7d020-7c4b-46ec-afa6-9717945b785b)
  )
  (wire (pts (xy 76.2 128.27) (xy 93.98 128.27))
    (stroke (width 0) (type default) (color 0 0 0 0))
    (uuid 8bb7d020-7c4b-46ec-afa6-9717945b785b)
  )
  (wire (pts (xy 93.98 99.06) (xy 93.98 101.6))
    (stroke (width 0) (type default) (color 0 0 0 0))
    (uuid 81034ae2-e76e-471c-a20d-0a11d4476316)
  )
  (wire (pts (xy 93.98 127) (xy 93.98 128.27))
    (stroke (width 0) (type default) (color 0 0 0 0))
    (uuid 817c2310-87f6-4fa9-9820-34f58aedb81e)
  )
  (wire (pts (xy 93.98 128.27) (xy 93.98 129.54))
    (stroke (width 0) (type default) (color 0 0 0 0))
    (uuid 817c2310-87f6-4fa9-9820-34f58aedb81e)
  )
  (wire (pts (xy 111.76 116.84) (xy 111.76 128.27))
    (stroke (width 0) (type default) (color 0 0 0 0))
    (uuid 2964bbf0-7060-4f38-aad3-8f46aa7cf661)
  )
  (wire (pts (xy 111.76 128.27) (xy 93.98 128.27))
    (stroke (width 0) (type default) (color 0 0 0 0))
    (uuid 2964bbf0-7060-4f38-aad3-8f46aa7cf661)
  )
  (wire (pts (xy 152.4 104.14) (xy 152.4 113.03))
    (stroke (width 0) (type default) (color 0 0 0 0))
    (uuid 57b6ebd1-0fd2-4aea-8994-9b06be2e6758)
  )
  (wire (pts (xy 152.4 113.03) (xy 170.18 113.03))
    (stroke (width 0) (type default) (color 0 0 0 0))
    (uuid 57b6ebd1-0fd2-4aea-8994-9b06be2e6758)
  )
  (wire (pts (xy 189.23 104.14) (xy 189.23 113.03))
    (stroke (width 0) (type default) (color 0 0 0 0))
    (uuid 55c69cb7-ecd8-41b5-aece-3790079acfb2)
  )
  (wire (pts (xy 189.23 113.03) (xy 170.18 113.03))
    (stroke (width 0) (type default) (color 0 0 0 0))
    (uuid 55c69cb7-ecd8-41b5-aece-3790079acfb2)
  )
  (wire (pts (xy 195.58 60.96) (xy 195.58 64.77))
    (stroke (width 0) (type default) (color 0 0 0 0))
    (uuid d3ca5140-c31c-419a-8222-96eaebca968c)
  )
  (wire (pts (xy 195.58 72.39) (xy 195.58 78.74))
    (stroke (width 0) (type default) (color 0 0 0 0))
    (uuid 04cf4443-94e8-43e9-81b6-3eeba36ddc57)
  )
  (wire (pts (xy 195.58 78.74) (xy 227.33 78.74))
    (stroke (width 0) (type default) (color 0 0 0 0))
    (uuid 04cf4443-94e8-43e9-81b6-3eeba36ddc57)
  )
  (wire (pts (xy 208.28 72.39) (xy 213.36 72.39))
    (stroke (width 0) (type default) (color 0 0 0 0))
    (uuid d0fdbbf8-0ce5-4924-8783-2bb28785c4a7)
  )
  (wire (pts (xy 213.36 64.77) (xy 208.28 64.77))
    (stroke (width 0) (type default) (color 0 0 0 0))
    (uuid 28cf28e1-f52f-41f1-a112-f0548e4e0aaf)
  )
  (wire (pts (xy 213.36 68.58) (xy 213.36 64.77))
    (stroke (width 0) (type default) (color 0 0 0 0))
    (uuid 28cf28e1-f52f-41f1-a112-f0548e4e0aaf)
  )
  (wire (pts (xy 213.36 71.12) (xy 218.44 71.12))
    (stroke (width 0) (type default) (color 0 0 0 0))
    (uuid d0fdbbf8-0ce5-4924-8783-2bb28785c4a7)
  )
  (wire (pts (xy 213.36 72.39) (xy 213.36 71.12))
    (stroke (width 0) (type default) (color 0 0 0 0))
    (uuid d0fdbbf8-0ce5-4924-8783-2bb28785c4a7)
  )
  (wire (pts (xy 218.44 68.58) (xy 213.36 68.58))
    (stroke (width 0) (type default) (color 0 0 0 0))
    (uuid 28cf28e1-f52f-41f1-a112-f0548e4e0aaf)
  )
  (wire (pts (xy 227.33 60.96) (xy 195.58 60.96))
    (stroke (width 0) (type default) (color 0 0 0 0))
    (uuid d3ca5140-c31c-419a-8222-96eaebca968c)
  )

  (label "DP12" (at 64.77 102.87 180)
    (effects (font (size 1.27 1.27)) (justify right bottom))
    (uuid 130b2a73-31ba-40ff-8c42-b307000883f8)
  )
  (label "DN12" (at 72.39 102.87 0)
    (effects (font (size 1.27 1.27)) (justify left bottom))
    (uuid 95f7bd3a-d153-41e5-8f4f-5b6009618430)
  )
  (label "DP12" (at 83.82 109.22 180)
    (effects (font (size 1.27 1.27)) (justify right bottom))
    (uuid 15dbc750-5b11-484b-b3ae-67a51a26ce10)
  )
  (label "DN12" (at 83.82 111.76 180)
    (effects (font (size 1.27 1.27)) (justify right bottom))
    (uuid d102d093-623b-4092-8583-ca1deaf8bdbf)
  )
  (label "DP12" (at 104.14 109.22 0)
    (effects (font (size 1.27 1.27)) (justify left bottom))
    (uuid 1ffe3459-4d7d-4a13-bcd7-1d8e2c9a93a3)
  )
  (label "DN12" (at 104.14 111.76 0)
    (effects (font (size 1.27 1.27)) (justify left bottom))
    (uuid 19ec20cc-4ac6-4ab5-b38b-2cbe8aac7fe6)
  )

  (symbol (lib_id "power:+5V") (at 93.98 99.06 0) (unit 1)
    (in_bom yes) (on_board yes)
    (uuid 3533530e-ff62-4e04-9b81-c2599ab367e4)
    (property "Reference" "#PWR05" (id 0) (at 93.98 102.87 0)
      (effects (font (size 1.27 1.27)) hide)
    )
    (property "Value" "+5V" (id 1) (at 93.98 95.504 0))
    (property "Footprint" "" (id 2) (at 93.98 99.06 0)
      (effects (font (size 1.27 1.27)) hide)
    )
    (property "Datasheet" "" (id 3) (at 93.98 99.06 0)
      (effects (font (size 1.27 1.27)) hide)
    )
    (pin "1" (uuid 0bc1b6aa-6a1f-461d-970c-de97c25b79af))
  )

  (symbol (lib_id "power:+5V") (at 138.43 67.31 0) (unit 1)
    (in_bom yes) (on_board yes)
    (uuid 633addef-6dee-4cb2-8692-930209b4357f)
    (property "Reference" "#PWR01" (id 0) (at 138.43 71.12 0)
      (effects (font (size 1.27 1.27)) hide)
    )
    (property "Value" "+5V" (id 1) (at 138.43 63.754 0))
    (property "Footprint" "" (id 2) (at 138.43 67.31 0)
      (effects (font (size 1.27 1.27)) hide)
    )
    (property "Datasheet" "" (id 3) (at 138.43 67.31 0)
      (effects (font (size 1.27 1.27)) hide)
    )
    (pin "1" (uuid 4566329b-9319-4746-97ac-136cc490a758))
  )

  (symbol (lib_id "power:+5V") (at 170.18 95.25 0) (unit 1)
    (in_bom yes) (on_board yes)
    (uuid 25c1a22d-1eaa-42b9-8ff5-3a58a491b6b3)
    (property "Reference" "#PWR03" (id 0) (at 170.18 99.06 0)
      (effects (font (size 1.27 1.27)) hide)
    )
    (property "Value" "+5V" (id 1) (at 170.18 91.694 0))
    (property "Footprint" "" (id 2) (at 170.18 95.25 0)
      (effects (font (size 1.27 1.27)) hide)
    )
    (property "Datasheet" "" (id 3) (at 170.18 95.25 0)
      (effects (font (size 1.27 1.27)) hide)
    )
    (pin "1" (uuid 6b939054-10f5-4f3b-a900-864f06422cd4))
  )

  (symbol (lib_id "power:GND") (at 93.98 129.54 0) (unit 1)
    (in_bom yes) (on_board yes)
    (uuid 7fe0ae1a-9650-4986-ad7f-3d1a63779c60)
    (property "Reference" "#PWR06" (id 0) (at 93.98 135.89 0)
      (effects (font (size 1.27 1.27)) hide)
    )
    (property "Value" "GND" (id 1) (at 93.98 133.35 0))
    (property "Footprint" "" (id 2) (at 93.98 129.54 0)
      (effects (font (size 1.27 1.27)) hide)
    )
    (property "Datasheet" "" (id 3) (at 93.98 129.54 0)
      (effects (font (size 1.27 1.27)) hide)
    )
    (pin "1" (uuid cba13824-c93e-4766-9add-b90e9b4e3008))
  )

  (symbol (lib_id "power:GND") (at 138.43 85.09 0) (unit 1)
    (in_bom yes) (on_board yes)
    (uuid 87ff3ece-4a0e-4d78-a884-b524be620d83)
    (property "Reference" "#PWR02" (id 0) (at 138.43 91.44 0)
      (effects (font (size 1.27 1.27)) hide)
    )
    (property "Value" "GND" (id 1) (at 138.43 88.9 0))
    (property "Footprint" "" (id 2) (at 138.43 85.09 0)
      (effects (font (size 1.27 1.27)) hide)
    )
    (property "Datasheet" "" (id 3) (at 138.43 85.09 0)
      (effects (font (size 1.27 1.27)) hide)
    )
    (pin "1" (uuid ed0b1b78-ca41-48ad-b4dd-8e1e25ac55f4))
  )

  (symbol (lib_id "power:GND") (at 170.18 113.03 0) (unit 1)
    (in_bom yes) (on_board yes)
    (uuid c1c781a7-98aa-46d9-a074-e7990c1860f2)
    (property "Reference" "#PWR04" (id 0) (at 170.18 119.38 0)
      (effects (font (size 1.27 1.27)) hide)
    )
    (property "Value" "GND" (id 1) (at 170.18 116.84 0))
    (property "Footprint" "" (id 2) (at 170.18 113.03 0)
      (effects (font (size 1.27 1.27)) hide)
    )
    (property "Datasheet" "" (id 3) (at 170.18 113.03 0)
      (effects (font (size 1.27 1.27)) hide)
    )
    (pin "1" (uuid 814cf2be-7a11-4666-ad0d-9d8f3b7b7084))
  )

  (symbol (lib_id "Device:R") (at 68.58 102.87 90) (unit 1)
    (in_bom yes) (on_board yes)
    (uuid 423ed3bd-7206-4e76-8a03-3aeab55d2ba3)
    (property "Reference" "R6" (id 0) (at 68.58 100.838 90))
    (property "Value" "5k" (id 1) (at 68.58 102.87 90))
    (property "Footprint" "Resistor_SMD:R_0805_2012Metric" (id 2) (at 68.58 104.648 90)
      (effects (font (size 1.27 1.27)) hide)
    )
    (property "Datasheet" "~" (id 3) (at 68.58 102.87 0)
      (effects (font (size 1.27 1.27)) hide)
    )
    (pin "1" (uuid 1b3e9309-7d11-490d-9a29-5059a72f5513))
    (pin "2" (uuid 00577310-c7a1-490e-91f1-0fef7c78d637))
  )

  (symbol (lib_id "Device:R") (at 80.01 116.84 90) (unit 1)
    (in_bom yes) (on_board yes)
    (uuid 6929459e-3bc3-4dd1-a3dd-364cf9b26e6e)
    (property "Reference" "R7" (id 0) (at 80.01 114.808 90))
    (property "Value" "5k" (id 1) (at 80.01 116.84 90))
    (property "Footprint" "Resistor_SMD:R_0805_2012Metric" (id 2) (at 80.01 118.618 90)
      (effects (font (size 1.27 1.27)) hide)
    )
    (property "Datasheet" "~" (id 3) (at 80.01 116.84 0)
      (effects (font (size 1.27 1.27)) hide)
    )
    (pin "1" (uuid 4c58fafc-f4ef-4175-b3bd-06c44c945b43))
    (pin "2" (uuid 60a0dee4-1cf6-497d-9344-325cfa9fa873))
  )

  (symbol (lib_id "Device:R") (at 107.95 116.84 270) (mirror x) (unit 1)
    (in_bom yes) (on_board yes)
    (uuid eac4118d-ec03-49ac-905e-d98699e49da8)
    (property "Reference" "R8" (id 0) (at 107.95 114.808 90))
    (property "Value" "5k" (id 1) (at 107.95 116.84 90))
    (property "Footprint" "Resistor_SMD:R_0805_2012Metric" (id 2) (at 107.95 118.618 90)
      (effects (font (size 1.27 1.27)) hide)
    )
    (property "Datasheet" "~" (id 3) (at 107.95 116.84 0)
      (effects (font (size 1.27 1.27)) hide)
    )
    (pin "1" (uuid 4a40fb87-6fa7-46f7-b09a-2ded1ae20bac))
    (pin "2" (uuid 5d38419c-ff6d-4ef1-a612-2f5d781b4e47))
  )

  (symbol (lib_id "Device:R") (at 138.43 71.12 0) (unit 1)
    (in_bom yes) (on_board yes)
    (uuid c6badcca-9b20-4cc0-bf77-8002094ee825)
    (property "Reference" "R3" (id 0) (at 140.462 71.12 90))
    (property "Value" "10k" (id 1) (at 138.43 71.12 90))
    (property "Footprint" "Resistor_SMD:R_0805_2012Metric" (id 2) (at 136.652 71.12 90)
      (effects (font (size 1.27 1.27)) hide)
    )
    (property "Datasheet" "~" (id 3) (at 138.43 71.12 0)
      (effects (font (size 1.27 1.27)) hide)
    )
    (pin "1" (uuid 7b37e13d-c874-4b8a-9cd1-e59c4764c383))
    (pin "2" (uuid 2e9a42ac-1e3c-48d4-9047-d971cb2fcada))
  )

  (symbol (lib_id "Device:R") (at 156.21 104.14 90) (unit 1)
    (in_bom yes) (on_board yes)
    (uuid 18a0ceb3-0c86-457a-8cd7-239a51890dd1)
    (property "Reference" "R4" (id 0) (at 156.21 102.108 90))
    (property "Value" "5k" (id 1) (at 156.21 104.14 90))
    (property "Footprint" "Resistor_SMD:R_0805_2012Metric" (id 2) (at 156.21 105.918 90)
      (effects (font (size 1.27 1.27)) hide)
    )
    (property "Datasheet" "~" (id 3) (at 156.21 104.14 0)
      (effects (font (size 1.27 1.27)) hide)
    )
    (pin "1" (uuid 735c4dda-ffc7-490a-a8b1-1b56b99b632a))
    (pin "2" (uuid e932c537-92ed-4f47-bfe9-29c9a92f4b6a))
  )

  (symbol (lib_id "Device:R") (at 185.42 104.14 90) (unit 1)
    (in_bom yes) (on_board yes)
    (uuid e9e1da96-8524-4ae8-8e0c-dcebf33e33a5)
    (property "Reference" "R5" (id 0) (at 185.42 102.108 90))
    (property "Value" "5k" (id 1) (at 185.42 104.14 90))
    (property "Footprint" "Resistor_SMD:R_0805_2012Metric" (id 2) (at 185.42 105.918 90)
      (effects (font (size 1.27 1.27)) hide)
    )
    (property "Datasheet" "~" (id 3) (at 185.42 104.14 0)
      (effects (font (size 1.27 1.27)) hide)
    )
    (pin "1" (uuid 946b85c6-8381-442e-8c63-ef9d5b8a3cf7))
    (pin "2" (uuid efc401a5-befd-4608-acb2-8e0409f2ce54))
  )

  (symbol (lib_id "Device:R") (at 195.58 68.58 0) (unit 1)
    (in_bom yes) (on_board yes)
    (uuid 3c3cecf1-4caa-4b5e-875d-c52fc0d25d11)
    (property "Reference" "R1" (id 0) (at 197.612 68.58 90))
    (property "Value" "1k" (id 1) (at 195.58 68.58 90))
    (property "Footprint" "Resistor_SMD:R_0805_2012Metric" (id 2) (at 193.802 68.58 90)
      (effects (font (size 1.27 1.27)) hide)
    )
    (property "Datasheet" "~" (id 3) (at 195.58 68.58 0)
      (effects (font (size 1.27 1.27)) hide)
    )
    (pin "1" (uuid 2c44164f-2bca-4ae2-beb8-ab8d1efc7da1))
    (pin "2" (uuid 5ae9d17c-9077-42e4-a4b5-2ec45196be30))
  )

  (symbol (lib_id "Device:R") (at 208.28 68.58 0) (unit 1)
    (in_bom yes) (on_board yes)
    (uuid 5500d66e-2767-4b54-b4e4-21df3cc641a8)
    (property "Reference" "R2" (id 0) (at 210.312 68.58 90))
    (property "Value" "1k" (id 1) (at 208.28 68.58 90))
    (property "Footprint" "Resistor_SMD:R_0805_2012Metric" (id 2) (at 206.502 68.58 90)
      (effects (font (size 1.27 1.27)) hide)
    )
    (property "Datasheet" "~" (id 3) (at 208.28 68.58 0)
      (effects (font (size 1.27 1.27)) hide)
    )
    (pin "1" (uuid 80abe677-c901-408d-a22f-fbead7bb9d14))
    (pin "2" (uuid e5d5c316-83ee-4b4a-96bd-9f39d4a58cb7))
  )

  (symbol (lib_id "Mechanical:Heatsink") (at 148.59 80.01 270) (unit 1)
    (in_bom yes) (on_board yes)
    (uuid 3869e0ad-0bed-460d-a7ca-5dca496f92e7)
    (property "Reference" "HS1" (id 0) (at 153.67 80.01 0))
    (property "Value" "Heatsink" (id 1) (at 147.32 80.01 0))
    (property "Footprint" "HeatSinks:TO-220_10x15x20_withFinsAndRod" (id 2) (at 148.59 80.3148 0)
      (effects (font (size 1.27 1.27)) hide)
    )
    (property "Datasheet" "~" (id 3) (at 148.59 80.3148 0)
      (effects (font (size 1.27 1.27)) hide)
    )
  )

  (symbol (lib_id "Transistor_BJT:TIP120") (at 135.89 80.01 0) (unit 1)
    (in_bom yes) (on_board yes)
    (uuid 79a0d384-f17f-405d-b617-8b9494bf1590)
    (property "Reference" "Q1" (id 0) (at 140.97 78.105 0)
      (effects (font (size 1.27 1.27)) (justify left))
    )
    (property "Value" "TIP120" (id 1) (at 140.97 80.01 0)
      (effects (font (size 1.27 1.27)) (justify left))
    )
    (property "Footprint" "Package_TO_SOT_THT:TO-220-3_Vertical" (id 2) (at 140.97 81.915 0)
      (effects (font (size 1.27 1.27) italic) (justify left) hide)
    )
    (property "Datasheet" "https://www.onsemi.com/pub/Collateral/TIP120-D.PDF" (id 3) (at 135.89 80.01 0)
      (effects (font (size 1.27 1.27)) (justify left) hide)
    )
    (pin "1" (uuid 4eeb1be7-9e7d-4ba7-8994-9610baf5f845))
    (pin "2" (uuid 5b89b48f-e1c3-4889-8ea4-08ed04c3d3dd))
    (pin "3" (uuid 7c3f3d68-4cd7-4796-821e-be159109a87d))
  )

  (symbol (lib_id "Wizzard.USB:USB-A_Plug_4pin") (at 227.33 69.85 0) (unit 1)
    (in_bom yes) (on_board yes)
    (uuid d66e22ac-f9f4-413a-be8d-0b46e25b04b6)
    (property "Reference" "USB1" (id 0) (at 229.87 62.23 0))
    (property "Value" "USB-A_Plug_4pin" (id 1) (at 236.22 77.47 0))
    (property "Footprint" "Wizzard.USB:USB-A_on_PCB" (id 2) (at 227.33 69.85 0)
      (effects (font (size 1.27 1.27)) hide)
    )
    (property "Datasheet" "" (id 3) (at 227.33 69.85 0)
      (effects (font (size 1.27 1.27)) hide)
    )
    (pin "1" (uuid 9c7e00bf-260b-43b0-bf50-43bd8d1a6fa4))
    (pin "2" (uuid 6035921a-1f48-4697-bbfb-0f5cbf928cb1))
    (pin "3" (uuid df7f6bd3-04a0-4f7d-880b-c2d14d4d8818))
    (pin "4" (uuid a6312b7d-bc80-4445-8394-2c5e06cc97a3))
  )

  (symbol (lib_id "Wizzard.USB:USB_C_Plug_6Pin_Power") (at 170.18 104.14 0) (unit 1)
    (in_bom yes) (on_board yes)
    (uuid a7ac1f19-de6d-4903-9f52-3a7e61bf8dc2)
    (property "Reference" "USB2" (id 0) (at 175.26 96.52 0))
    (property "Value" "USB_C_Plug_6Pin_Power" (id 1) (at 170.18 118.11 0))
    (property "Footprint" "Wizzard.USB:USB-C_6pin" (id 2) (at 170.18 104.14 0)
      (effects (font (size 1.27 1.27)) hide)
    )
    (property "Datasheet" "" (id 3) (at 170.18 104.14 0)
      (effects (font (size 1.27 1.27)) hide)
    )
    (pin "A1" (uuid fd5341b8-62e0-4c45-8c86-2ac322bd06ae))
    (pin "A12" (uuid 345011e7-5c8f-47ed-83e1-7078f947ea89))
    (pin "A4" (uuid 75f61697-eefb-4bf7-a8d2-50dc2b4c715b))
    (pin "A5" (uuid 63090134-59fd-46ab-9d29-2442c9fd753e))
    (pin "A9" (uuid 8009dd83-917b-4a75-a8aa-8ddcba3a653d))
    (pin "B1" (uuid 72fec42d-b998-4d3c-848c-789d87632584))
    (pin "B12" (uuid 22399ab1-3ba0-4a56-aa62-453032d09d09))
    (pin "B4" (uuid 7c6f3ec9-68ae-4289-9a44-77f0a84244a9))
    (pin "B5" (uuid 58c3f9d7-434b-4e6e-b780-1e9cac8c6b3f))
    (pin "B9" (uuid 41626017-58ea-4bd8-9c08-f629eefe3309))
  )

  (symbol (lib_id "Wizzard.USB:USB_C_Plug_12Pin") (at 93.98 114.3 0) (unit 1)
    (in_bom yes) (on_board yes)
    (uuid e0259f4d-4840-4291-89a7-1bb72b946bdb)
    (property "Reference" "USB4" (id 0) (at 99.06 105.41 0))
    (property "Value" "USB_C_Plug_12Pin" (id 1) (at 93.98 135.89 0))
    (property "Footprint" "Wizzard.USB:USB-C_12pin" (id 2) (at 93.98 114.3 0)
      (effects (font (size 1.27 1.27)) hide)
    )
    (property "Datasheet" "" (id 3) (at 93.98 114.3 0)
      (effects (font (size 1.27 1.27)) hide)
    )
    (pin "A12B1" (uuid df7fa0bd-dba9-4483-911c-e5dd497fd31e))
    (pin "A1B12" (uuid ad2089b8-7f4a-4ca9-be55-33cb565109a6))
    (pin "A4B9" (uuid 5aa2170c-0955-4277-8062-483a17dc9385))
    (pin "A5" (uuid 134f11ca-a755-413b-88a1-e8e30d7d70f6))
    (pin "A6" (uuid 1aee13ec-4089-420c-842b-d2a8cb9a08de))
    (pin "A7" (uuid 8d336b18-7de0-44cc-b512-8851a401f15b))
    (pin "A8" (uuid 76c71d00-d112-4c51-bbd3-04f24ba98961))
    (pin "A9B4" (uuid 4c589650-78f5-409c-9e2d-11aa4745d1d9))
    (pin "B5" (uuid 44b1d9a8-8ca4-4dba-8f41-fc0b9e2fad29))
    (pin "B6" (uuid 242bc983-76d4-4fc2-a9b9-d7b3b0ad8b91))
    (pin "B7" (uuid 0b6a7ab2-3fe5-4075-8002-bb4ff9e89be6))
    (pin "B8" (uuid b9547421-1582-4f92-9ef2-6f106a2aabad))
  )

  (symbol (lib_id "Wizzard.USB:USB_C_Plug_24Pin") (at 227.33 107.95 0) (unit 1)
    (in_bom yes) (on_board yes)
    (uuid 65905052-7673-4a35-a124-cc7f57a58652)
    (property "Reference" "USB3" (id 0) (at 232.41 92.71 0))
    (property "Value" "USB_C_Plug_24Pin" (id 1) (at 227.33 129.54 0))
    (property "Footprint" "" (id 2) (at 227.33 107.95 0)
      (effects (font (size 1.27 1.27)) hide)
    )
    (property "Datasheet" "" (id 3) (at 227.33 107.95 0)
      (effects (font (size 1.27 1.27)) hide)
    )
    (pin "A1" (uuid 94dbbc53-ec53-40b7-8dfa-501d39b5019e))
    (pin "A10" (uuid f9be4a83-3afb-4738-87a9-8ed9909f5d57))
    (pin "A11" (uuid 7167732e-7932-4074-b3f3-1c1e3a379302))
    (pin "A12" (uuid a0d1f897-a8d6-44b4-b024-7c3fb493f5dc))
    (pin "A2" (uuid 20a50598-4b44-457c-81bf-2a7f8c6dcfa8))
    (pin "A3" (uuid 3b6f0fe3-4c39-46cf-ba57-7882345cd872))
    (pin "A4" (uuid 47787f39-d60d-44d5-a622-f203a1cfcc73))
    (pin "A5" (uuid 2cac5d2e-fd73-4893-a8d9-a23ae7e9f52e))
    (pin "A6" (uuid b1167ebe-7eca-4cfc-bbcd-12b214ba0683))
    (pin "A7" (uuid 2a3f27e9-be49-4de0-8ff5-fc25ff4308de))
    (pin "A8" (uuid 862a2e11-0b08-4fbe-b597-63c2cf6aaad8))
    (pin "A9" (uuid a29bff0b-3898-4bbd-9869-21946704c081))
    (pin "B1" (uuid 20bc2e31-ea12-457f-8870-8d10c950147a))
    (pin "B10" (uuid 0a3e3d8a-3cfc-40d6-a8db-f22d1f710e3a))
    (pin "B11" (uuid 2bd9b47e-ff0f-402c-a19e-a4b7aa75df1b))
    (pin "B12" (uuid 3aef7206-d5ed-4fac-9030-e2d4960f016f))
    (pin "B2" (uuid 4e081679-fcc9-4ab9-8916-d0d56b6298a2))
    (pin "B3" (uuid 3ef5f10e-9626-4368-b6f8-77f3cee0c96b))
    (pin "B4" (uuid 22512b77-3e21-429e-bd7b-277d14f29860))
    (pin "B5" (uuid 47a3613a-96d6-4fe1-8474-b12d47b2ad36))
    (pin "B6" (uuid e920982b-71e2-4eec-a872-7cdb00f79a97))
    (pin "B7" (uuid 7b9be786-da2e-478a-a882-1c5debb85de3))
    (pin "B8" (uuid 12854c41-42f9-4b21-9b9f-bc1da384c119))
    (pin "B9" (uuid acea1ff8-2beb-43de-be6c-688ed1cbbd83))
  )

  (sheet_instances
    (path "/" (page "1"))
  )

  (symbol_instances
    (path "/633addef-6dee-4cb2-8692-930209b4357f"
      (reference "#PWR01") (unit 1) (value "+5V") (footprint "")
    )
    (path "/87ff3ece-4a0e-4d78-a884-b524be620d83"
      (reference "#PWR02") (unit 1) (value "GND") (footprint "")
    )
    (path "/25c1a22d-1eaa-42b9-8ff5-3a58a491b6b3"
      (reference "#PWR03") (unit 1) (value "+5V") (footprint "")
    )
    (path "/c1c781a7-98aa-46d9-a074-e7990c1860f2"
      (reference "#PWR04") (unit 1) (value "GND") (footprint "")
    )
    (path "/3533530e-ff62-4e04-9b81-c2599ab367e4"
      (reference "#PWR05") (unit 1) (value "+5V") (footprint "")
    )
    (path "/7fe0ae1a-9650-4986-ad7f-3d1a63779c60"
      (reference "#PWR06") (unit 1) (value "GND") (footprint "")
    )
    (path "/3869e0ad-0bed-460d-a7ca-5dca496f92e7"
      (reference "HS1") (unit 1) (value "Heatsink") (footprint "HeatSinks:TO-220_10x15x20_withFinsAndRod")
    )
    (path "/79a0d384-f17f-405d-b617-8b9494bf1590"
      (reference "Q1") (unit 1) (value "TIP120") (footprint "Package_TO_SOT_THT:TO-220-3_Vertical")
    )
    (path "/3c3cecf1-4caa-4b5e-875d-c52fc0d25d11"
      (reference "R1") (unit 1) (value "1k") (footprint "Resistor_SMD:R_0805_2012Metric")
    )
    (path "/5500d66e-2767-4b54-b4e4-21df3cc641a8"
      (reference "R2") (unit 1) (value "1k") (footprint "Resistor_SMD:R_0805_2012Metric")
    )
    (path "/c6badcca-9b20-4cc0-bf77-8002094ee825"
      (reference "R3") (unit 1) (value "10k") (footprint "Resistor_SMD:R_0805_2012Metric")
    )
    (path "/18a0ceb3-0c86-457a-8cd7-239a51890dd1"
      (reference "R4") (unit 1) (value "5k") (footprint "Resistor_SMD:R_0805_2012Metric")
    )
    (path "/e9e1da96-8524-4ae8-8e0c-dcebf33e33a5"
      (reference "R5") (unit 1) (value "5k") (footprint "Resistor_SMD:R_0805_2012Metric")
    )
    (path "/423ed3bd-7206-4e76-8a03-3aeab55d2ba3"
      (reference "R6") (unit 1) (value "5k") (footprint "Resistor_SMD:R_0805_2012Metric")
    )
    (path "/6929459e-3bc3-4dd1-a3dd-364cf9b26e6e"
      (reference "R7") (unit 1) (value "5k") (footprint "Resistor_SMD:R_0805_2012Metric")
    )
    (path "/eac4118d-ec03-49ac-905e-d98699e49da8"
      (reference "R8") (unit 1) (value "5k") (footprint "Resistor_SMD:R_0805_2012Metric")
    )
    (path "/d66e22ac-f9f4-413a-be8d-0b46e25b04b6"
      (reference "USB1") (unit 1) (value "USB-A_Plug_4pin") (footprint "Wizzard.USB:USB-A_on_PCB")
    )
    (path "/a7ac1f19-de6d-4903-9f52-3a7e61bf8dc2"
      (reference "USB2") (unit 1) (value "USB_C_Plug_6Pin_Power") (footprint "Wizzard.USB:USB-C_6pin")
    )
    (path "/65905052-7673-4a35-a124-cc7f57a58652"
      (reference "USB3") (unit 1) (value "USB_C_Plug_24Pin") (footprint "")
    )
    (path "/e0259f4d-4840-4291-89a7-1bb72b946bdb"
      (reference "USB4") (unit 1) (value "USB_C_Plug_12Pin") (footprint "Wizzard.USB:USB-C_12pin")
    )
  )
)
