(footprint "wi-logo-micro-original-cu" (version 20210606) (generator pcbnew) (layer "F.Cu")
  (tedit 60D1EDEC)
  (attr board_only exclude_from_pos_files exclude_from_bom)
  (fp_text reference "G***" (at 6.6 0.2) (layer "F.SilkS") hide
    (effects (font (size 1.524 1.524) (thickness 0.3)))
    (tstamp 00000000-0000-0000-0000-000000000000)
  )
  (fp_text value "LOGO" (at 0.75 0) (layer "F.SilkS") hide
    (effects (font (size 1.524 1.524) (thickness 0.3)))
    (tstamp 00000000-0000-0000-0000-000000000000)
  )
  (fp_text user "design" (at -0.1 2.3 unlocked) (layer "F.Cu")
    (effects (font (size 1 1) (thickness 0.15)))
    (tstamp 8f051597-4845-4a82-86fb-c94b0ed5ca1f)
  )
  (fp_text user "original" (at -0.1 -2.3 unlocked) (layer "F.Cu")
    (effects (font (size 1 1) (thickness 0.15)))
    (tstamp db8750d7-b0d0-4e2b-a0a5-8fdb15bd172b)
  )
  (fp_poly (pts (xy -1.607665 -1.216477)
    (xy -1.691934 -1.119925)
    (xy -1.76752 -1.022115)
    (xy -1.834914 -0.922231)
    (xy -1.894605 -0.819457)
    (xy -1.947083 -0.712978)
    (xy -1.992838 -0.601978)
    (xy -2.01614 -0.536246)
    (xy -2.052938 -0.41214)
    (xy -2.08073 -0.286899)
    (xy -2.099563 -0.160915)
    (xy -2.109486 -0.034581)
    (xy -2.110547 0.091711)
    (xy -2.102795 0.21757)
    (xy -2.086277 0.342602)
    (xy -2.061042 0.466414)
    (xy -2.027138 0.588616)
    (xy -1.984613 0.708814)
    (xy -1.933517 0.826615)
    (xy -1.873896 0.941628)
    (xy -1.824106 1.025046)
    (xy -1.811567 1.044553)
    (xy -1.800642 1.060919)
    (xy -1.792302 1.072739)
    (xy -1.787516 1.078605)
    (xy -1.786895 1.078995)
    (xy -1.783406 1.075795)
    (xy -1.773714 1.066385)
    (xy -1.758108 1.051051)
    (xy -1.736874 1.03008)
    (xy -1.7103 1.003759)
    (xy -1.678675 0.972374)
    (xy -1.642286 0.936212)
    (xy -1.60142 0.895559)
    (xy -1.556365 0.850701)
    (xy -1.50741 0.801925)
    (xy -1.45484 0.749518)
    (xy -1.398945 0.693766)
    (xy -1.340012 0.634955)
    (xy -1.278329 0.573373)
    (xy -1.214182 0.509305)
    (xy -1.147861 0.443037)
    (xy -1.079653 0.374858)
    (xy -1.035376 0.330586)
    (xy -0.286977 -0.417823)
    (xy 0.463785 0.332928)
    (xy 1.214547 1.08368)
    (xy 1.251777 1.025092)
    (xy 1.317724 0.913028)
    (xy 1.375089 0.797842)
    (xy 1.423937 0.679361)
    (xy 1.46433 0.557413)
    (xy 1.496329 0.431827)
    (xy 1.519997 0.302428)
    (xy 1.52443 0.270897)
    (xy 1.531636 0.20183)
    (xy 1.535985 0.126719)
    (xy 1.537491 0.048244)
    (xy 1.536171 -0.030918)
    (xy 1.532038 -0.108089)
    (xy 1.525109 -0.180589)
    (xy 1.521709 -0.206616)
    (xy 1.498942 -0.335128)
    (xy 1.467546 -0.460787)
    (xy 1.427684 -0.583254)
    (xy 1.379518 -0.702192)
    (xy 1.323213 -0.817262)
    (xy 1.25893 -0.928127)
    (xy 1.186835 -1.034448)
    (xy 1.107088 -1.135886)
    (xy 1.033829 -1.217579)
    (xy 0.995305 -1.258062)
    (xy 1.223746 -1.258062)
    (xy 1.275609 -1.258044)
    (xy 1.319057 -1.257973)
    (xy 1.354856 -1.257822)
    (xy 1.383774 -1.257566)
    (xy 1.406578 -1.257177)
    (xy 1.424037 -1.25663)
    (xy 1.436916 -1.255899)
    (xy 1.445983 -1.254956)
    (xy 1.452006 -1.253777)
    (xy 1.455752 -1.252334)
    (xy 1.457988 -1.250601)
    (xy 1.458474 -1.250027)
    (xy 1.466754 -1.238714)
    (xy 1.478923 -1.221136)
    (xy 1.493991 -1.198806)
    (xy 1.510968 -1.173241)
    (xy 1.528865 -1.145954)
    (xy 1.546693 -1.11846)
    (xy 1.563461 -1.092274)
    (xy 1.578181 -1.06891)
    (xy 1.589862 -1.049883)
    (xy 1.595525 -1.040264)
    (xy 1.661756 -0.915213)
    (xy 1.719508 -0.786987)
    (xy 1.768718 -0.655986)
    (xy 1.809322 -0.522608)
    (xy 1.841256 -0.387252)
    (xy 1.864457 -0.25032)
    (xy 1.878862 -0.112209)
    (xy 1.884408 0.026681)
    (xy 1.88103 0.165951)
    (xy 1.868665 0.305201)
    (xy 1.84725 0.444032)
    (xy 1.83845 0.488423)
    (xy 1.810605 0.604126)
    (xy 1.775532 0.720435)
    (xy 1.733907 0.835678)
    (xy 1.686405 0.948184)
    (xy 1.633702 1.05628)
    (xy 1.576476 1.158296)
    (xy 1.550873 1.199521)
    (xy 1.528075 1.235105)
    (xy 0.906802 1.235105)
    (xy 0.309924 0.638214)
    (xy -0.286954 0.041324)
    (xy -0.883858 0.638214)
    (xy -1.480762 1.235105)
    (xy -2.10088 1.235105)
    (xy -2.128781 1.190338)
    (xy -2.15484 1.147548)
    (xy -2.178629 1.106215)
    (xy -2.201635 1.063615)
    (xy -2.225343 1.017022)
    (xy -2.242906 0.981085)
    (xy -2.299612 0.853017)
    (xy -2.34768 0.722078)
    (xy -2.38706 0.588659)
    (xy -2.417697 0.45315)
    (xy -2.439539 0.315941)
    (xy -2.452534 0.177423)
    (xy -2.45663 0.037986)
    (xy -2.451773 -0.101981)
    (xy -2.437912 -0.242086)
    (xy -2.421641 -0.346655)
    (xy -2.395928 -0.467437)
    (xy -2.362434 -0.588569)
    (xy -2.3217 -0.708783)
    (xy -2.274264 -0.82681)
    (xy -2.220668 -0.941383)
    (xy -2.161452 -1.051232)
    (xy -2.097154 -1.155089)
    (xy -2.04682 -1.227069)
    (xy -2.023968 -1.258062)
    (xy -1.569288 -1.258062)) (layer "F.Cu") (width 0) (fill solid) (tstamp 00000000-0000-0000-0000-000000000000))
  (fp_poly (pts (xy 2.320152 -0.712825)
    (xy 2.359833 -0.556344)
    (xy 2.390395 -0.400608)
    (xy 2.411856 -0.245421)
    (xy 2.424231 -0.09059)
    (xy 2.427537 0.064078)
    (xy 2.421791 0.218779)
    (xy 2.410317 0.345969)
    (xy 2.388195 0.500673)
    (xy 2.357381 0.653752)
    (xy 2.318068 0.804509)
    (xy 2.270454 0.952246)
    (xy 2.214734 1.096267)
    (xy 2.172963 1.190338)
    (xy 2.152013 1.235105)
    (xy 1.959864 1.235105)
    (xy 1.918862 1.235049)
    (xy 1.880851 1.234887)
    (xy 1.846782 1.234632)
    (xy 1.817603 1.234296)
    (xy 1.794266 1.233892)
    (xy 1.777721 1.23343)
    (xy 1.768918 1.232925)
    (xy 1.767715 1.23265)
    (xy 1.769833 1.227819)
    (xy 1.775496 1.216983)
    (xy 1.783669 1.202098)
    (xy 1.787792 1.194771)
    (xy 1.821489 1.132162)
    (xy 1.855415 1.063217)
    (xy 1.888335 0.990667)
    (xy 1.919015 0.917241)
    (xy 1.94622 0.84567)
    (xy 1.948495 0.839302)
    (xy 1.982397 0.736809)
    (xy 2.011278 0.633853)
    (xy 2.03556 0.528543)
    (xy 2.055664 0.418988)
    (xy 2.072012 0.303298)
    (xy 2.076338 0.266305)
    (xy 2.07845 0.240994)
    (xy 2.080109 0.208038)
    (xy 2.081323 0.168964)
    (xy 2.082101 0.125299)
    (xy 2.08245 0.07857)
    (xy 2.082379 0.030304)
    (xy 2.081896 -0.017973)
    (xy 2.08101 -0.064734)
    (xy 2.079728 -0.108453)
    (xy 2.078058 -0.147601)
    (xy 2.07601 -0.180653)
    (xy 2.073803 -0.20432)
    (xy 2.054541 -0.340533)
    (xy 2.029408 -0.470907)
    (xy 1.998073 -0.596925)
    (xy 1.960211 -0.720068)
    (xy 1.958777 -0.724304)
    (xy 1.942799 -0.771366)
    (xy 2.303646 -0.771366)) (layer "F.Cu") (width 0) (fill solid) (tstamp 00000000-0000-0000-0000-000000000000))
  (fp_poly (pts (xy 2.141014 -1.169676)
    (xy 2.155859 -1.139237)
    (xy 2.171379 -1.106521)
    (xy 2.186918 -1.072992)
    (xy 2.201821 -1.040116)
    (xy 2.215433 -1.009358)
    (xy 2.227098 -0.982184)
    (xy 2.236161 -0.960059)
    (xy 2.241968 -0.944449)
    (xy 2.242631 -0.942398)
    (xy 2.245847 -0.932068)
    (xy 1.878368 -0.932068)
    (xy 1.837464 -1.013566)
    (xy 1.801168 -1.083921)
    (xy 1.767075 -1.145929)
    (xy 1.734908 -1.200085)
    (xy 1.724399 -1.216739)
    (xy 1.714759 -1.231805)
    (xy 1.706834 -1.244263)
    (xy 1.70213 -1.251745)
    (xy 1.701777 -1.252322)
    (xy 1.702623 -1.253751)
    (xy 1.707491 -1.254937)
    (xy 1.717044 -1.255899)
    (xy 1.731945 -1.256657)
    (xy 1.752858 -1.257229)
    (xy 1.780445 -1.257637)
    (xy 1.815372 -1.257898)
    (xy 1.8583 -1.258032)
    (xy 1.897738 -1.258062)
    (xy 2.097175 -1.258062)) (layer "F.Cu") (width 0) (fill solid) (tstamp 00000000-0000-0000-0000-000000000000))
)
