(footprint "Slot + Mouse Bites 20mm, w2.4mm" (version 20221018) (generator pcbnew)
  (layer "F.Cu")
  (fp_text reference "REF**" (at 0 -3.2 unlocked) (layer "F.SilkS") hide
      (effects (font (size 1 1) (thickness 0.15)))
    (tstamp 5f90acbf-49e5-4979-9d44-dacb69d8c100)
  )
  (fp_text value "Slot + Mouse Bites 20mm, w2.4mm" (at 0 -4.7 unlocked) (layer "F.Fab") hide
      (effects (font (size 1 1) (thickness 0.15)))
    (tstamp 67b564ed-eb34-41d8-8ce0-15235ffc9315)
  )
  (fp_text user "${REFERENCE}" (at 0 2.5 unlocked) (layer "F.Fab") hide
      (effects (font (size 1 1) (thickness 0.15)))
    (tstamp 4c7d3def-3ed3-4628-9b50-bfbb3534217e)
  )
  (fp_rect (start -10 -1.2) (end 10 1.2)
    (stroke (width 0.12) (type solid)) (fill none) (layer "Dwgs.User") (tstamp 35721130-45d5-4390-b12f-eea470eb7817))
  (pad "" np_thru_hole circle (at -9.3 -0.9) (size 0.5 0.5) (drill 0.5) (layers "*.Mask") (tstamp 6957bf08-4f68-4e50-aa73-66c3200a9d44))
  (pad "" np_thru_hole circle (at -9.3 0.9) (size 0.5 0.5) (drill 0.5) (layers "*.Mask") (tstamp 9811ca36-84d8-455c-8f92-586f2164de18))
  (pad "" np_thru_hole circle (at -8.45 -0.9) (size 0.5 0.5) (drill 0.5) (layers "*.Mask") (tstamp 886a7c4a-9cc3-402e-a7b6-4963a38f1d46))
  (pad "" np_thru_hole circle (at -8.45 0.9) (size 0.5 0.5) (drill 0.5) (layers "*.Mask") (tstamp 924c3674-6d1e-4f91-b25d-b5a68ceecdfe))
  (pad "" np_thru_hole circle (at -7.6 -0.9) (size 0.5 0.5) (drill 0.5) (layers "*.Mask") (tstamp e01cb631-9c87-4f47-a6bc-ac57db41231b))
  (pad "" np_thru_hole circle (at -7.6 0.9) (size 0.5 0.5) (drill 0.5) (layers "*.Mask") (tstamp e3dceff3-4fe3-4894-8585-1f49b34af831))
  (pad "" np_thru_hole oval (at 0 0) (size 14 2.4) (drill oval 14 2.4) (layers "*.Mask") (tstamp f25bbe98-96bb-44fa-aa05-c34de538bdc0))
  (pad "" np_thru_hole circle (at 7.6 -0.9) (size 0.5 0.5) (drill 0.5) (layers "*.Mask") (tstamp 1d479796-41ad-46f1-a30b-7eb2171197a1))
  (pad "" np_thru_hole circle (at 7.6 0.9) (size 0.5 0.5) (drill 0.5) (layers "*.Mask") (tstamp d2ef4b76-e519-4d57-8b22-b6cf9f24d4fe))
  (pad "" np_thru_hole circle (at 8.45 -0.9) (size 0.5 0.5) (drill 0.5) (layers "*.Mask") (tstamp d64f9dbd-81ba-433f-ac9d-d8d595db21a4))
  (pad "" np_thru_hole circle (at 8.45 0.9) (size 0.5 0.5) (drill 0.5) (layers "*.Mask") (tstamp a0c0a4d3-5616-4435-9aae-3d19aa81d1f2))
  (pad "" np_thru_hole circle (at 9.3 -0.9) (size 0.5 0.5) (drill 0.5) (layers "*.Mask") (tstamp 95846cbb-8364-46a7-a771-72b082d1bcbd))
  (pad "" np_thru_hole circle (at 9.3 0.9) (size 0.5 0.5) (drill 0.5) (layers "*.Mask") (tstamp 99686536-d8c9-4af8-b763-5e87e07f7b7b))
)
